<?xml version="1.0" encoding="UTF-8"?>
<svg width="15px" height="18px" viewBox="0 0 15 18" version="1.1" xmlns="http://www.w3.org/2000/svg" xmlns:xlink="http://www.w3.org/1999/xlink">
    <!-- Generator: Sketch 42 (36781) - http://www.bohemiancoding.com/sketch -->
    <title>Icon</title>
    <desc>Created with Sketch.</desc>
    <defs>
        <path d="M16.6510417,9.75 C17.2462595,9.75 17.7544331,9.96972437 18.1755778,10.4091797 C18.5967225,10.848635 18.8072917,11.3789031 18.8072917,12 L18.8072917,18.75 C18.8072917,19.3710969 18.5967225,19.901365 18.1755778,20.3408203 C17.7544331,20.7802756 17.2462595,21 16.6510417,21 L6.94791667,21 C6.35269885,21 5.84452522,20.7802756 5.42338053,20.3408203 C5.00223585,19.901365 4.79166667,19.3710969 4.79166667,18.75 L4.79166667,12 C4.79166667,11.3789031 5.00223585,10.848635 5.42338053,10.4091797 C5.84452522,9.96972437 6.35269885,9.75 6.94791667,9.75 L7.48697917,9.75 L7.48697917,7.60546875 C7.48697917,6.97265309 7.59085996,6.37500281 7.79862467,5.8125 C8.00638939,5.24999719 8.29837865,4.76074427 8.67460124,4.34472656 C9.05082382,3.92870886 9.50284567,3.60058714 10.0306803,3.36035156 C10.558515,3.12011599 11.1424935,3 11.7826335,3 C12.4115429,3 12.9927138,3.12011599 13.5261637,3.36035156 C14.0596137,3.60058714 14.5172507,3.9257792 14.8990885,4.3359375 C15.2809264,4.7460958 15.5785308,5.23241906 15.7919108,5.79492188 C16.0052908,6.35742469 16.1119792,6.96093428 16.1119792,7.60546875 L16.1119792,9.75 L16.6510417,9.75 Z M8.56510417,7.60546875 L8.56510417,9.75 L15.0338542,9.75 L15.0338542,7.60546875 C15.0338542,6.63280764 14.7334421,5.80957368 14.132609,5.13574219 C13.531776,4.46191069 12.7484586,4.125 11.7826335,4.125 C10.8055778,4.125 10.025068,4.46484035 9.44108073,5.14453125 C8.85709343,5.82422215 8.56510417,6.64452645 8.56510417,7.60546875 Z M17.7291667,18.75 L17.7291667,12 C17.7291667,11.695311 17.6224783,11.4316417 17.4090983,11.2089844 C17.1957183,10.986327 16.9430353,10.875 16.6510417,10.875 L6.94791667,10.875 C6.65592302,10.875 6.40324,10.986327 6.18986003,11.2089844 C5.97648005,11.4316417 5.86979167,11.695311 5.86979167,12 L5.86979167,18.75 C5.86979167,19.054689 5.97648005,19.3183583 6.18986003,19.5410156 C6.40324,19.763673 6.65592302,19.875 6.94791667,19.875 L16.6510417,19.875 C16.9430353,19.875 17.1957183,19.763673 17.4090983,19.5410156 C17.6224783,19.3183583 17.7291667,19.054689 17.7291667,18.75 Z M11.7994792,13.125 C12.1027033,13.125 12.3581939,13.2333974 12.5659587,13.4501953 C12.7737234,13.6669933 12.8776042,13.9335922 12.8776042,14.25 C12.8776042,14.4609386 12.8270676,14.6513663 12.7259928,14.8212891 C12.6249181,14.9912118 12.495769,15.1230464 12.3385417,15.2167969 L12.3385417,17.0625 C12.3385417,17.2148445 12.2851975,17.3466791 12.1785075,17.4580078 C12.0718175,17.5693365 11.945476,17.625 11.7994792,17.625 C11.6534823,17.625 11.5271408,17.5693365 11.4204508,17.4580078 C11.3137609,17.3466791 11.2604167,17.2148445 11.2604167,17.0625 L11.2604167,15.2167969 C11.1031893,15.1230464 10.9740402,14.9912118 10.8729655,14.8212891 C10.7718908,14.6513663 10.7213542,14.4609386 10.7213542,14.25 C10.7213542,13.9335922 10.825235,13.6669933 11.0329997,13.4501953 C11.2407644,13.2333974 11.496255,13.125 11.7994792,13.125 Z" id="path-1"></path>
    </defs>
    <g id="SALUDO-COMPLETO" stroke="none" stroke-width="1" fill="none" fill-rule="evenodd">
        <g id="Tablet---ficha-producto-salud-completo-v1" transform="translate(-738.000000, -56.000000)">
            <g id="cabecera" transform="translate(0.000000, 20.000000)">
                <g id="Link" transform="translate(651.000000, 30.000000)">
                    <g id="Icon" transform="translate(83.000000, 0.000000)">
                        <rect id="Rectangle" x="0" y="0" width="23" height="27"></rect>
                        <g id="Icon/Lock" transform="translate(0.000000, 3.000000)">
                            <rect id="Bounding-Box" x="0" y="0" width="23" height="24"></rect>
                            <mask id="mask-2" fill="white">
                                <use xlink:href="#path-1"></use>
                            </mask>
                            <use id="mask" fill="#000000" fill-rule="evenodd" xlink:href="#path-1"></use>
                            <g id="Mixin/Fill/GrisPrimario" mask="url(#mask-2)" fill-rule="evenodd" fill="#54585A">
                                <rect id="Rectangle-2" x="0" y="0" width="23" height="24"></rect>
                            </g>
                        </g>
                    </g>
                </g>
            </g>
        </g>
    </g>
</svg>