<?xml version="1.0" encoding="UTF-8"?>
<svg width="49px" height="50px" viewBox="0 0 49 50" version="1.1" xmlns="http://www.w3.org/2000/svg" xmlns:xlink="http://www.w3.org/1999/xlink">
    <!-- Generator: Sketch 42 (36781) - http://www.bohemiancoding.com/sketch -->
    <title>reloj-icon</title>
    <desc>Created with Sketch.</desc>
    <defs></defs>
    <g id="SALUDO-COMPLETO" stroke="none" stroke-width="1" fill="none" fill-rule="evenodd" font-size="48.8300018" font-family="simple-line-icons" font-weight="normal">
        <g id="desktop---ficha-producto-salud-completo-v1" transform="translate(-827.000000, -749.000000)" fill="#57BAB1">
            <g id="bloque-ventajas" transform="translate(100.000000, 677.000000)">
                <g id="2" transform="translate(599.000000, 72.000000)">
                    <text id="reloj-icon">
                        <tspan x="128.084999" y="46"></tspan>
                    </text>
                </g>
            </g>
        </g>
    </g>
</svg>